Dvorak_all
60 3 112
dh
hd
h
t
n
s
-s
s-
iu
ui
u
e
o
a
a;a
o,o
e.e
upu
uyu
hfh
hgh
tct
nrn
sls
s/s
s@s
s\s
;a;
,o,
.e.
pup
yuy
fhf
ghg
ctc
rnr
lsl
/s/
@s@
\s\
'a'
qoq
jej
kuk
xux
bhb
mhm
wtw
vnv
zsz
a'a
oqo
eje
uku
uxu
hbh
hmh
twt
nvn
szs
a$a
a&a
a[a
o{o
e}e
u(u
u=u
h*h
h)h
t+t
n]n
s!s
s#s
$a$
&a&
[a[
{o{
}e}
(u(
=u=
*h*
)h)
+t+
]n]
!s!
#s#
a~a
a%a
a7a
o5o
e3e
u1u
u9u
h0h
h2h
t4t
n6n
s8s
s`s
~a~
%a%
7a7
5o5
3e3
1u1
9u9
0h0
2h2
4t4
6n6
8s8
`s`
